Women Live Longer? – A-Blog
…
age <- read_delim(file = "../../data/age-dataset.csv", delim = ";")

Rows: 18408 Columns: 7
── Column specification ────────────────────────────────────────────────────────
Delimiter: ";"
chr (3): Entity, Code, Continent
dbl (2): Year, Population - Sex: all - Age: all - Variant: estimates
num (2): Life expectancy - Sex: female - Age: at birth - Variant: estimates,...

ℹ Use `spec()` to retrieve the full column specification for this data.
ℹ Specify the column types or set `show_col_types = FALSE` to quiet this message.

age

# A tibble: 18,408 × 7
   Entity      Code      Year Life expectancy - Sex: fe…¹ Life expectancy - Se…²
   <chr>       <chr>    <dbl>                       <dbl>                  <dbl>
 1 Abkhazia    OWID_ABK  2015                          NA                     NA
 2 Afghanistan AFG       1950                         284                    271
 3 Afghanistan AFG       1951                         286                    274
 4 Afghanistan AFG       1952                         291                    278
 5 Afghanistan AFG       1953                         296                    283
 6 Afghanistan AFG       1954                         299                    286
 7 Afghanistan AFG       1955                         306                    293
 8 Afghanistan AFG       1956                         312                    297
 9 Afghanistan AFG       1957                         317                    303
10 Afghanistan AFG       1958                         322                    308
# ℹ 18,398 more rows
# ℹ abbreviated names:
#   ¹​`Life expectancy - Sex: female - Age: at birth - Variant: estimates`,
#   ²​`Life expectancy - Sex: male - Age: at birth - Variant: estimates`
# ℹ 2 more variables:
#   `Population - Sex: all - Age: all - Variant: estimates` <dbl>,
#   Continent <chr>
…
Quantitative Variables: Life Expectancy Female, Life Expectancy Male, Population

Qualitative Variables: Entity, Code, Year, Continent

Observations:

year2015_age <- age %>%
    filter(Year == 2015)

year2015_age

# A tibble: 303 × 7
   Entity              Code   Year Life expectancy - Se…¹ Life expectancy - Se…²
   <chr>               <chr> <dbl>                  <dbl>                  <dbl>
 1 Abkhazia            OWID…  2015                     NA                     NA
 2 Afghanistan         AFG    2015                    646                    608
 3 Africa (UN)         <NA>   2015                    629                    593
 4 Akrotiri and Dheke… OWID…  2015                     NA                     NA
 5 Aland Islands       ALA    2015                     NA                     NA
 6 Albania             ALB    2015                    812                    764
 7 Algeria             DZA    2015                    768                    745
 8 American Samoa      ASM    2015                    748                    703
 9 Andorra             AND    2015                    854                    806
10 Angola              AGO    2015                    631                    582
# ℹ 293 more rows
# ℹ abbreviated names:
#   ¹​`Life expectancy - Sex: female - Age: at birth - Variant: estimates`,
#   ²​`Life expectancy - Sex: male - Age: at birth - Variant: estimates`
# ℹ 2 more variables:
#   `Population - Sex: all - Age: all - Variant: estimates` <dbl>,
#   Continent <chr>
…
new_year2015_age <- new_year2015_age %>%
  mutate(female_expc = sprintf("%.1f", female_expc / 10),
         male_expc = sprintf("%.1f", male_expc / 10),
         )

new_year2015_age

# A tibble: 303 × 7
   ent                   code      year female_expc male_expc        pop cont   
   <chr>                 <chr>    <dbl> <chr>       <chr>          <dbl> <chr>  
 1 Abkhazia              OWID_ABK  2015 NA          NA                NA Asia   
 2 Afghanistan           AFG       2015 64.6        60.8        33753500 Asia   
 3 Africa (UN)           <NA>      2015 62.9        59.3      1201108000 <NA>   
 4 Akrotiri and Dhekelia OWID_AKD  2015 NA          NA                NA Asia   
 5 Aland Islands         ALA       2015 NA          NA                NA Europe 
 6 Albania               ALB       2015 81.2        76.4         2882482 Europe 
 7 Algeria               DZA       2015 76.8        74.5        39543148 Africa 
 8 American Samoa        ASM       2015 74.8        70.3           51391 Oceania
 9 Andorra               AND       2015 85.4        80.6           71766 Europe 
10 Angola                AGO       2015 63.1        58.2        28127724 Africa 
# ℹ 293 more rows
…
