Ikea Furniture – A-Blog
…
Rows: 3211 Columns: 15
── Column specification ────────────────────────────────────────────────────────
Delimiter: ";"
chr (8): name, category, old_price, link, other_colors, short_description, d...
dbl (5): item_id, depth, height, width, category_total
num (1): price
lgl (1): sellable_online

ℹ Use `spec()` to retrieve the full column specification for this data.
ℹ Specify the column types or set `show_col_types = FALSE` to quiet this message.

ikea

# A tibble: 3,211 × 15
    item_id name     category price old_price sellable_online link  other_colors
      <dbl> <chr>    <chr>    <dbl> <chr>     <lgl>           <chr> <chr>       
 1 29123958 MINNEN   Beds (2…  3950 SR 445    TRUE            http… No          
 2 49278341 BRIMNES  Beds (2…  8950 SR 925    TRUE            http… No          
 3 50461230 SMÅGÖRA  Beds (2…  5950 No old p… TRUE            http… No          
 4 89326463 PLATSA   Beds (2… 21110 SR 2,205  TRUE            http… No          
 5 50468953 VATTVIK… Beds (2…  9950 No old p… TRUE            http… No          
 6 69326609 SLÄKT    Beds (2…  5400 No old p… FALSE           http… No          
 7 59099136 BRIMNES  Beds (2…  7950 No old p… TRUE            http… Yes         
 8 40395245 NEIDEN   Beds (2…   990 No old p… TRUE            http… No          
 9 69277307 LEIRVIK  Beds (2… 11950 No old p… TRUE            http… Yes         
10 70395239 NEIDEN   Beds (2…  1990 No old p… TRUE            http… No          
# ℹ 3,201 more rows
# ℹ 7 more variables: short_description <chr>, designer <chr>, depth <dbl>,
#   height <dbl>, width <dbl>, price_usd <chr>, category_total <dbl>
…
