Summaries – A-Blog
…
Examining and Modifying babynames dataset

Import babynames dataset

library(babynames)

babynames dataset

babynames

# A tibble: 1,924,665 × 5
    year sex   name          n   prop
   <dbl> <chr> <chr>     <int>  <dbl>
 1  1880 F     Mary       7065 0.0724
 2  1880 F     Anna       2604 0.0267
 3  1880 F     Emma       2003 0.0205
 4  1880 F     Elizabeth  1939 0.0199
 5  1880 F     Minnie     1746 0.0179
 6  1880 F     Margaret   1578 0.0162
 7  1880 F     Ida        1472 0.0151
 8  1880 F     Alice      1414 0.0145
 9  1880 F     Bertha     1320 0.0135
10  1880 F     Sarah      1288 0.0132
# ℹ 1,924,655 more rows
…
Rows: 1,924,665
Columns: 5
$ year <fct> 1880, 1880, 1880, 1880, 1880, 1880, 1880, 1880, 1880, 1880, 1880,…
$ sex  <fct> F, F, F, F, F, F, F, F, F, F, F, F, F, F, F, F, F, F, F, F, F, F,…
$ name <fct> Mary, Anna, Emma, Elizabeth, Minnie, Margaret, Ida, Alice, Bertha…
$ n    <fct> 7065, 2604, 2003, 1939, 1746, 1578, 1472, 1414, 1320, 1288, 1258,…
$ prop <fct> 0.07238359, 0.02667896, 0.02052149, 0.01986579, 0.01788843, 0.016…

Display babynames_modified

babynames_modified

# A tibble: 1,924,665 × 5
   year  sex   name      n     prop      
   <fct> <fct> <fct>     <fct> <fct>     
 1 1880  F     Mary      7065  0.07238359
 2 1880  F     Anna      2604  0.02667896
 3 1880  F     Emma      2003  0.02052149
 4 1880  F     Elizabeth 1939  0.01986579
 5 1880  F     Minnie    1746  0.01788843
 6 1880  F     Margaret  1578  0.0161672 
 7 1880  F     Ida       1472  0.01508119
 8 1880  F     Alice     1414  0.01448696
 9 1880  F     Bertha    1320  0.0135239 
10 1880  F     Sarah     1288  0.01319605
# ℹ 1,924,655 more rows
…
math_anxiety <- read_delim(file = "../../data/MathAnxiety.csv", delim = ";")

Rows: 599 Columns: 6
── Column specification ────────────────────────────────────────────────────────
Delimiter: ";"
chr (2): Gender, Grade
dbl (3): AMAS, RCMAS, Arith
num (1): Age

ℹ Use `spec()` to retrieve the full column specification for this data.
ℹ Specify the column types or set `show_col_types = FALSE` to quiet this message.

math_anxiety

# A tibble: 599 × 6
     Age Gender Grade      AMAS RCMAS Arith
   <dbl> <chr>  <chr>     <dbl> <dbl> <dbl>
 1  1378 Boy    Secondary     9    20     6
 2  1407 Boy    Secondary    18     8     6
 3  1379 Girl   Secondary    23    26     5
 4  1428 Girl   Secondary    19    18     7
 5  1356 Boy    Secondary    23    20     1
 6  1350 Girl   Secondary    27    33     1
 7  1336 Boy    Secondary    22    23     4
 8  1393 Boy    Secondary    17    11     7
 9  1317 Girl   Secondary    28    32     2
10  1348 Boy    Secondary    20    30     6
# ℹ 589 more rows
…
